Chapter 15 Computational music psychology | Music and Science
…
kk_all_key_profiles
#> # A tibble: 24 × 3
#>    tonic mode  profile   
#>    <int> <chr> <list>    
#>  1     0 Major <dbl [12]>
#>  2     0 Minor <dbl [12]>
#>  3     1 Major <dbl [12]>
#>  4     1 Minor <dbl [12]>
#>  5     2 Major <dbl [12]>
#>  6     2 Minor <dbl [12]>
#>  7     3 Major <dbl [12]>
#>  8     3 Minor <dbl [12]>
#>  9     4 Major <dbl [12]>
#> 10     4 Minor <dbl [12]>
#> # … with 14 more rows
…
